<svg xmlns="http://www.w3.org/2000/svg" viewBox="-1973.149 1985.652 86.349 32.748">
  <defs>
    <style>
      .cls-1 {
        fill: none;
        stroke: #eba131;
        stroke-width: 4px;
      }

      .cls-2 {
        fill: #fff;
        font-size: 20px;
        font-family: OpenSans-Bold, Open Sans;
        font-weight: 700;
      }

      .cls-3 {
        fill: #eba131;
      }
    </style>
  </defs>
  <g id="Symbol_20_1" data-name="Symbol 20 – 1" transform="translate(-2133 1969)">
    <path id="Path_243" data-name="Path 243" class="cls-1" d="M-1981.9,3995.2l-8.6,30.2h83.7" transform="translate(2153 -3978)"/>
    <text id="Watch" class="cls-2" transform="translate(178 38)"><tspan x="0" y="0">Watc</tspan><tspan class="cls-3" y="0">h</tspan></text>
  </g>
</svg>
